%YAML 1.1
%TAG !u! tag:unity3d.com,2011:
--- !u!114 &11400000
MonoBehaviour:
  m_ObjectHideFlags: 0
  m_CorrespondingSourceObject: {fileID: 0}
  m_PrefabInstance: {fileID: 0}
  m_PrefabAsset: {fileID: 0}
  m_GameObject: {fileID: 0}
  m_Enabled: 1
  m_EditorHideFlags: 0
  m_Script: {fileID: 11500000, guid: 95e66c6366d904e98bc83428217d4fd7, type: 3}
  m_Name: Capsulescalling
  m_EditorClassIdentifier: 
  _data:
    _json: '{"graph":{"variables":{"Kind":"Flow","collection":{"$content":[],"$version":"A"},"$version":"A"},"controlInputDefinitions":[],"controlOutputDefinitions":[],"valueInputDefinitions":[],"valueOutputDefinitions":[],"title":null,"summary":null,"pan":{"x":420.5028,"y":510.4774},"zoom":1.0,"elements":[{"coroutine":false,"defaultValues":{},"position":{"x":-126.0,"y":196.0},"guid":"e3544017-6a55-4d19-8c9f-5b677f620c83","$version":"A","$type":"Unity.VisualScripting.Update","$id":"9"},{"inputCount":2,"defaultValues":{},"position":{"x":666.0,"y":304.0},"guid":"d0af7e93-180d-4a13-88a7-43a29607d380","$version":"A","$type":"Unity.VisualScripting.GenericSum","$id":"11"},{"chainable":false,"member":{"name":"Scale","parameterTypes":["UnityEngine.Vector3","UnityEngine.Vector3"],"targetType":"UnityEngine.Vector3","targetTypeName":"UnityEngine.Vector3","$version":"A"},"defaultValues":{"%a":{"x":0.0,"y":0.0,"z":0.0,"$type":"UnityEngine.Vector3"},"%b":{"x":0.0,"y":0.0,"z":0.0,"$type":"UnityEngine.Vector3"}},"position":{"x":820.0,"y":188.0},"guid":"9c86ca51-c4d7-4066-b2fe-577baf917b1c","$version":"A","$type":"Unity.VisualScripting.InvokeMember","$id":"13"},{"member":{"name":"deltaTime","parameterTypes":null,"targetType":"UnityEngine.Time","targetTypeName":"UnityEngine.Time","$version":"A"},"defaultValues":{},"position":{"x":31.0,"y":531.0},"guid":"ba4c9a34-6a19-4228-a100-12e9fb875d24","$version":"A","$type":"Unity.VisualScripting.GetMember","$id":"16"},{"defaultValues":{},"position":{"x":310.0,"y":583.0},"guid":"60ee06c4-aff5-4d9a-825a-e9131a2a69d1","$version":"A","$type":"Unity.VisualScripting.GenericMultiply","$id":"19"},{"member":{"name":"localScale","parameterTypes":null,"targetType":"UnityEngine.Transform","targetTypeName":"UnityEngine.Transform","$version":"A"},"defaultValues":{"target":null},"position":{"x":448.0,"y":293.0},"guid":"0447cdea-6cfd-4b57-b178-2da19085a7f2","$version":"A","$type":"Unity.VisualScripting.GetMember","$id":"21"},{"specifyFallback":false,"kind":"Object","defaultValues":{"name":{"$content":"MoveAxis","$type":"System.String"},"object":null},"position":{"x":140.0,"y":387.0},"guid":"2f4e288a-5176-44a3-8e8d-2c12c74c97fe","$version":"A","$type":"Unity.VisualScripting.GetVariable","$id":"24"},{"chainable":false,"member":{"name":"ClampMagnitude","parameterTypes":["UnityEngine.Vector3","System.Single"],"targetType":"UnityEngine.Vector3","targetTypeName":"UnityEngine.Vector3","$version":"A"},"defaultValues":{"%vector":{"x":0.0,"y":0.0,"z":0.0,"$type":"UnityEngine.Vector3"},"%maxLength":{"$content":1.0,"$type":"System.Single"}},"position":{"x":235.0,"y":105.0},"guid":"b3c26eb3-9462-4c1b-9b2c-4bb63681bc79","$version":"A","$type":"Unity.VisualScripting.InvokeMember","$id":"26"},{"specifyFallback":false,"kind":"Object","defaultValues":{"name":{"$content":"MoveAxis","$type":"System.String"},"object":null},"position":{"x":-150.0,"y":404.0},"guid":"af0f6d12-da94-4b2b-9152-12e9fc9955be","$version":"A","$type":"Unity.VisualScripting.GetVariable","$id":"29"},{"defaultValues":{},"position":{"x":503.0,"y":566.0},"guid":"270b5efb-59be-47e0-b421-2b1e8060dea7","$version":"A","$type":"Unity.VisualScripting.GenericMultiply","$id":"31"},{"sourceUnit":{"$ref":"9"},"sourceKey":"trigger","destinationUnit":{"$ref":"26"},"destinationKey":"enter","guid":"9d9821c1-0615-4c30-92cc-b49158ae2e74","$type":"Unity.VisualScripting.ControlConnection"},{"sourceUnit":{"$ref":"26"},"sourceKey":"exit","destinationUnit":{"$ref":"13"},"destinationKey":"enter","guid":"e5c38f25-9dbc-49e2-8ada-b49772b71f8c","$type":"Unity.VisualScripting.ControlConnection"},{"sourceUnit":{"$ref":"21"},"sourceKey":"value","destinationUnit":{"$ref":"11"},"destinationKey":"0","guid":"3a4f5bbe-5a47-4aa6-909d-1a60d72d831d","$type":"Unity.VisualScripting.ValueConnection"},{"sourceUnit":{"$ref":"29"},"sourceKey":"value","destinationUnit":{"$ref":"26"},"destinationKey":"%vector","guid":"afeab950-e6d2-4e9d-8430-e475c50e3d23","$type":"Unity.VisualScripting.ValueConnection"},{"sourceUnit":{"$ref":"26"},"sourceKey":"result","destinationUnit":{"$ref":"31"},"destinationKey":"a","guid":"0258b312-c8e5-4428-af90-e82958a5da80","$type":"Unity.VisualScripting.ValueConnection"},{"sourceUnit":{"$ref":"24"},"sourceKey":"value","destinationUnit":{"$ref":"19"},"destinationKey":"a","guid":"d613635d-f79c-44fc-bc03-8768b99b6e45","$type":"Unity.VisualScripting.ValueConnection"},{"sourceUnit":{"$ref":"19"},"sourceKey":"product","destinationUnit":{"$ref":"31"},"destinationKey":"b","guid":"43c419be-bf05-4d19-aa3f-c883847cd211","$type":"Unity.VisualScripting.ValueConnection"},{"sourceUnit":{"$ref":"16"},"sourceKey":"value","destinationUnit":{"$ref":"19"},"destinationKey":"b","guid":"4915881b-f6c7-43d3-b263-17843bdd0d27","$type":"Unity.VisualScripting.ValueConnection"},{"sourceUnit":{"$ref":"31"},"sourceKey":"product","destinationUnit":{"$ref":"11"},"destinationKey":"1","guid":"7652a3e7-2970-4baa-9fdb-54516d4cd3a9","$type":"Unity.VisualScripting.ValueConnection"},{"sourceUnit":{"$ref":"11"},"sourceKey":"sum","destinationUnit":{"$ref":"13"},"destinationKey":"%b","guid":"806e095e-12eb-4832-bcba-c04206331d73","$type":"Unity.VisualScripting.ValueConnection"}],"$version":"A"}}'
    _objectReferences: []
