%YAML 1.1
%TAG !u! tag:unity3d.com,2011:
--- !u!114 &11400000
MonoBehaviour:
  m_ObjectHideFlags: 0
  m_CorrespondingSourceObject: {fileID: 0}
  m_PrefabInstance: {fileID: 0}
  m_PrefabAsset: {fileID: 0}
  m_GameObject: {fileID: 0}
  m_Enabled: 1
  m_EditorHideFlags: 0
  m_Script: {fileID: 11500000, guid: 95e66c6366d904e98bc83428217d4fd7, type: 3}
  m_Name: PlayerFPScontroller
  m_EditorClassIdentifier: 
  _data:
    _json: '{"graph":{"variables":{"Kind":"Flow","collection":{"$content":[],"$version":"A"},"$version":"A"},"controlInputDefinitions":[],"controlOutputDefinitions":[],"valueInputDefinitions":[],"valueOutputDefinitions":[],"title":null,"summary":null,"pan":{"x":1614.693,"y":754.6823},"zoom":1.0,"elements":[{"coroutine":false,"defaultValues":{},"position":{"x":-189.0,"y":-489.0},"guid":"6729ba26-8c36-48a1-94a8-1aae4645c2ac","$version":"A","$type":"Unity.VisualScripting.Start","$id":"9"},{"defaultValues":{},"position":{"x":1693.0,"y":1092.0},"guid":"d59aa399-8c96-4427-aff0-5286e952e3c4","$version":"A","$type":"Unity.VisualScripting.GenericMultiply","$id":"11"},{"inputCount":2,"defaultValues":{},"position":{"x":430.0,"y":-193.0},"guid":"5a6b748e-f20d-43fb-afcd-936107033f28","$version":"A","$type":"Unity.VisualScripting.GenericSum","$id":"13"},{"member":{"name":"right","parameterTypes":null,"targetType":"UnityEngine.Vector3","targetTypeName":"UnityEngine.Vector3","$version":"A"},"defaultValues":{},"position":{"x":58.0,"y":-195.0},"guid":"0428b0bf-275d-49b2-a77c-cdb6cfeafdcd","$version":"A","$type":"Unity.VisualScripting.GetMember","$id":"15"},{"defaultValues":{},"position":{"x":233.0,"y":-223.0},"guid":"5ceba259-abc9-48c4-99d7-5d9086c120fa","$version":"A","$type":"Unity.VisualScripting.GenericMultiply","$id":"18"},{"chainable":false,"member":{"name":"Translate","parameterTypes":["UnityEngine.Vector3"],"targetType":"UnityEngine.Transform","targetTypeName":"UnityEngine.Transform","$version":"A"},"defaultValues":{"target":null,"%translation":{"x":0.0,"y":0.0,"z":0.0,"$type":"UnityEngine.Vector3"}},"position":{"x":467.0,"y":-350.0},"guid":"0007d5da-8ac1-49ff-9c8c-b42195c44fff","$version":"A","$type":"Unity.VisualScripting.InvokeMember","$id":"20"},{"defaultValues":{},"position":{"x":755.0,"y":-183.0},"guid":"bd91f6fa-d8a5-4f02-a5cb-3c5474559bfd","$version":"A","$type":"Unity.VisualScripting.GenericMultiply","$id":"23"},{"chainable":false,"member":{"name":"SetActive","parameterTypes":["System.Boolean"],"targetType":"UnityEngine.GameObject","targetTypeName":"UnityEngine.GameObject","$version":"A"},"defaultValues":{"target":null,"%value":{"$content":false,"$type":"System.Boolean"}},"position":{"x":763.0,"y":-493.0},"guid":"0538fae5-62de-4cdc-b757-fdd253b96de8","$version":"A","$type":"Unity.VisualScripting.InvokeMember","$id":"25"},{"specifyFallback":false,"kind":"Object","defaultValues":{"name":{"$content":"walkSpeed","$type":"System.String"},"object":null},"position":{"x":428.0,"y":80.0},"guid":"01e7d634-4d6a-4cd4-b5b4-881819c981cc","$version":"A","$type":"Unity.VisualScripting.GetVariable","$id":"28"},{"chainable":false,"member":{"name":"lockState","parameterTypes":null,"targetType":"UnityEngine.Cursor","targetTypeName":"UnityEngine.Cursor","$version":"A"},"defaultValues":{"input":{"$content":"None","$type":"UnityEngine.CursorLockMode"}},"position":{"x":276.0,"y":-493.0},"guid":"cbb75574-bba1-4e22-8b7c-dd14d78e4cb3","$version":"A","$type":"Unity.VisualScripting.SetMember","$id":"30"},{"chainable":false,"member":{"name":"visible","parameterTypes":null,"targetType":"UnityEngine.Cursor","targetTypeName":"UnityEngine.Cursor","$version":"A"},"defaultValues":{"input":{"$content":false,"$type":"System.Boolean"}},"position":{"x":18.0,"y":-495.0},"guid":"40faa935-a8e1-4b42-81a6-c50ac7da45a5","$version":"A","$type":"Unity.VisualScripting.SetMember","$id":"33"},{"coroutine":false,"defaultValues":{},"position":{"x":-223.0,"y":-283.0},"guid":"62a7e625-fe5a-4987-b735-6316e1ed352d","$version":"A","$type":"Unity.VisualScripting.Update","$id":"36"},{"chainable":false,"member":{"name":"Translate","parameterTypes":["UnityEngine.Vector3"],"targetType":"UnityEngine.Transform","targetTypeName":"UnityEngine.Transform","$version":"A"},"defaultValues":{"target":null,"%translation":{"x":0.0,"y":0.0,"z":0.0,"$type":"UnityEngine.Vector3"}},"position":{"x":972.0,"y":-193.0},"guid":"c7db9344-1df4-4dec-9477-6282cede18d0","$version":"A","$type":"Unity.VisualScripting.InvokeMember","$id":"38"},{"coroutine":false,"defaultValues":{},"position":{"x":-219.0,"y":10.0},"guid":"a0f64eb3-6bed-4366-94bc-4fa8431c0233","$version":"A","$type":"Unity.VisualScripting.Update","$id":"41"},{"chainable":false,"member":{"name":"GetAxisRaw","parameterTypes":["System.String"],"targetType":"UnityEngine.Input","targetTypeName":"UnityEngine.Input","$version":"A"},"defaultValues":{"%axisName":{"$content":"Vertical","$type":"System.String"}},"position":{"x":-24.0,"y":-19.0},"guid":"37eb1c61-18a4-479f-b0cc-0a10e2805f4a","$version":"A","$type":"Unity.VisualScripting.InvokeMember","$id":"43"},{"member":{"name":"forward","parameterTypes":null,"targetType":"UnityEngine.Vector3","targetTypeName":"UnityEngine.Vector3","$version":"A"},"defaultValues":{},"position":{"x":16.0,"y":174.0},"guid":"d0602008-b9ad-4f2c-8d96-e055b0d44049","$version":"A","$type":"Unity.VisualScripting.GetMember","$id":"46"},{"defaultValues":{},"position":{"x":280.0,"y":-16.0},"guid":"528ed098-a726-4b6e-955d-d1181a5185d6","$version":"A","$type":"Unity.VisualScripting.GenericMultiply","$id":"49"},{"defaultValues":{"b":{"$content":-1.0,"$type":"System.Single"}},"position":{"x":1642.0,"y":382.0},"guid":"c910b717-9ad4-4edb-a821-0d963ed58c95","$version":"A","$type":"Unity.VisualScripting.ScalarMultiply","$id":"51"},{"chainable":false,"member":{"name":"GetAxisRaw","parameterTypes":["System.String"],"targetType":"UnityEngine.Input","targetTypeName":"UnityEngine.Input","$version":"A"},"defaultValues":{"%axisName":{"$content":"Horizontal","$type":"System.String"}},"position":{"x":-7.0,"y":-333.0},"guid":"9dd6eae7-9ea4-47b4-8f3e-07021dc65dfb","$version":"A","$type":"Unity.VisualScripting.InvokeMember","$id":"53"},{"member":{"name":"deltaTime","parameterTypes":null,"targetType":"UnityEngine.Time","targetTypeName":"UnityEngine.Time","$version":"A"},"defaultValues":{},"position":{"x":432.0,"y":238.0},"guid":"8f044102-00dc-45e6-84cf-26bb6a178743","$version":"A","$type":"Unity.VisualScripting.GetMember","$id":"56"},{"chainable":false,"member":{"name":"Find","parameterTypes":["System.String"],"targetType":"UnityEngine.GameObject","targetTypeName":"UnityEngine.GameObject","$version":"A"},"defaultValues":{"%name":{"$content":"Capsule","$type":"System.String"}},"position":{"x":515.0,"y":-493.0},"guid":"6dd79d4a-4df4-460e-b55c-db0285712bf4","$version":"A","$type":"Unity.VisualScripting.InvokeMember","$id":"59"},{"coroutine":false,"defaultValues":{},"position":{"x":908.0,"y":100.0},"guid":"f532f04d-e455-40f2-bc30-8759f9583632","$version":"A","$type":"Unity.VisualScripting.Update","$id":"62"},{"chainable":false,"member":{"name":"GetAxis","parameterTypes":["System.String"],"targetType":"UnityEngine.Input","targetTypeName":"UnityEngine.Input","$version":"A"},"defaultValues":{"%axisName":{"$content":"Mouse
      Y","$type":"System.String"}},"position":{"x":1150.0,"y":76.0},"guid":"cb6d8dc6-1019-4d28-9281-a84242cfced6","$version":"A","$type":"Unity.VisualScripting.InvokeMember","$id":"64"},{"specifyFallback":false,"kind":"Object","defaultValues":{"name":{"$content":"cam","$type":"System.String"},"object":null},"position":{"x":1165.0,"y":206.0},"guid":"3236404f-9d5a-41db-9e08-2a3544ad0d54","$version":"A","$type":"Unity.VisualScripting.GetVariable","$id":"67"},{"chainable":false,"member":{"name":"Rotate","parameterTypes":["System.Single","System.Single","System.Single"],"targetType":"UnityEngine.Transform","targetTypeName":"UnityEngine.Transform","$version":"A"},"defaultValues":{"target":null,"%xAngle":{"$content":0.0,"$type":"System.Single"},"%yAngle":{"$content":0.0,"$type":"System.Single"},"%zAngle":{"$content":0.0,"$type":"System.Single"}},"position":{"x":1797.0,"y":103.0},"guid":"91ebf0ee-6324-4960-a72d-241885b4a0ba","$version":"A","$type":"Unity.VisualScripting.InvokeMember","$id":"69"},{"member":{"name":"deltaTime","parameterTypes":null,"targetType":"UnityEngine.Time","targetTypeName":"UnityEngine.Time","$version":"A"},"defaultValues":{},"position":{"x":997.0,"y":520.0},"guid":"15aef318-7ac7-4deb-a586-f7a275ff3e6c","$version":"A","$type":"Unity.VisualScripting.GetMember","$id":"72"},{"defaultValues":{},"position":{"x":1270.0,"y":391.0},"guid":"4dc6e5d2-6e2e-4b50-9ccb-79862798f3ee","$version":"A","$type":"Unity.VisualScripting.GenericMultiply","$id":"75"},{"defaultValues":{},"position":{"x":620.0,"y":77.0},"guid":"5ea09ddc-feca-4b37-960b-efa94719a3ca","$version":"A","$type":"Unity.VisualScripting.GenericMultiply","$id":"77"},{"coroutine":false,"defaultValues":{},"position":{"x":1024.0,"y":753.0},"guid":"7c8dc977-55e8-4089-8781-f74be8786f08","$version":"A","$type":"Unity.VisualScripting.Update","$id":"79"},{"chainable":false,"member":{"name":"GetAxis","parameterTypes":["System.String"],"targetType":"UnityEngine.Input","targetTypeName":"UnityEngine.Input","$version":"A"},"defaultValues":{"%axisName":{"$content":"Mouse
      X","$type":"System.String"}},"position":{"x":1289.0,"y":744.0},"guid":"ad202c6a-a754-42b8-a7e2-338edaa68be3","$version":"A","$type":"Unity.VisualScripting.InvokeMember","$id":"81"},{"defaultValues":{},"position":{"x":1743.0,"y":805.0},"guid":"1b688cc4-f708-43c3-b2b1-322d18900757","$version":"A","$type":"Unity.VisualScripting.GenericMultiply","$id":"84"},{"chainable":false,"member":{"name":"Rotate","parameterTypes":["System.Single","System.Single","System.Single"],"targetType":"UnityEngine.Transform","targetTypeName":"UnityEngine.Transform","$version":"A"},"defaultValues":{"target":null,"%xAngle":{"$content":0.0,"$type":"System.Single"},"%yAngle":{"$content":0.0,"$type":"System.Single"},"%zAngle":{"$content":0.0,"$type":"System.Single"}},"position":{"x":1966.0,"y":666.0},"guid":"856e3faa-af21-4db7-949b-7180e3b0b7fe","$version":"A","$type":"Unity.VisualScripting.InvokeMember","$id":"86"},{"specifyFallback":false,"kind":"Object","defaultValues":{"name":{"$content":"hRotation","$type":"System.String"},"object":null},"position":{"x":1447.0,"y":1062.0},"guid":"c7ab38f1-8dce-488a-8e84-3558885ebda9","$version":"A","$type":"Unity.VisualScripting.GetVariable","$id":"89"},{"member":{"name":"deltaTime","parameterTypes":null,"targetType":"UnityEngine.Time","targetTypeName":"UnityEngine.Time","$version":"A"},"defaultValues":{},"position":{"x":1447.0,"y":1192.0},"guid":"2867f887-4554-4881-89f2-8113cf5ea6b9","$version":"A","$type":"Unity.VisualScripting.GetMember","$id":"91"},{"defaultValues":{},"position":{"x":1467.0,"y":378.0},"guid":"188bd933-ae12-4cc8-bcff-42ff5fc2ac6e","$version":"A","$type":"Unity.VisualScripting.GenericMultiply","$id":"94"},{"specifyFallback":false,"kind":"Object","defaultValues":{"name":{"$content":"vRotationSpeed","$type":"System.String"},"object":null},"position":{"x":974.0,"y":383.0},"guid":"eb1d8248-b1d9-4924-9eac-13e212d0e960","$version":"A","$type":"Unity.VisualScripting.GetVariable","$id":"96"},{"sourceUnit":{"$ref":"41"},"sourceKey":"trigger","destinationUnit":{"$ref":"43"},"destinationKey":"enter","guid":"e45d3afa-adfd-4a90-b657-5e575809c767","$type":"Unity.VisualScripting.ControlConnection"},{"sourceUnit":{"$ref":"79"},"sourceKey":"trigger","destinationUnit":{"$ref":"81"},"destinationKey":"enter","guid":"2087df9b-6da8-42d7-947b-d4c5551dc6ae","$type":"Unity.VisualScripting.ControlConnection"},{"sourceUnit":{"$ref":"62"},"sourceKey":"trigger","destinationUnit":{"$ref":"64"},"destinationKey":"enter","guid":"864c55f5-003b-437c-bea5-09bcb6d83cff","$type":"Unity.VisualScripting.ControlConnection"},{"sourceUnit":{"$ref":"64"},"sourceKey":"exit","destinationUnit":{"$ref":"69"},"destinationKey":"enter","guid":"a4ad8211-6d6c-4e33-bdfc-47436b06c00e","$type":"Unity.VisualScripting.ControlConnection"},{"sourceUnit":{"$ref":"9"},"sourceKey":"trigger","destinationUnit":{"$ref":"33"},"destinationKey":"assign","guid":"92dc65ef-79ca-4951-8f68-1d827b3d9106","$type":"Unity.VisualScripting.ControlConnection"},{"sourceUnit":{"$ref":"33"},"sourceKey":"assigned","destinationUnit":{"$ref":"30"},"destinationKey":"assign","guid":"88e0be6c-080a-4b08-9478-e2087bed8d9b","$type":"Unity.VisualScripting.ControlConnection"},{"sourceUnit":{"$ref":"30"},"sourceKey":"assigned","destinationUnit":{"$ref":"59"},"destinationKey":"enter","guid":"79197ecf-bc3b-4b14-b81b-b6869443bb43","$type":"Unity.VisualScripting.ControlConnection"},{"sourceUnit":{"$ref":"59"},"sourceKey":"exit","destinationUnit":{"$ref":"25"},"destinationKey":"enter","guid":"490251ee-cfc5-4739-8ceb-dec1ab1fd259","$type":"Unity.VisualScripting.ControlConnection"},{"sourceUnit":{"$ref":"36"},"sourceKey":"trigger","destinationUnit":{"$ref":"53"},"destinationKey":"enter","guid":"46591681-23c2-48ac-9431-65d47e072d91","$type":"Unity.VisualScripting.ControlConnection"},{"sourceUnit":{"$ref":"53"},"sourceKey":"exit","destinationUnit":{"$ref":"20"},"destinationKey":"enter","guid":"17246a45-c7c5-41d4-af34-d377917bf24e","$type":"Unity.VisualScripting.ControlConnection"},{"sourceUnit":{"$ref":"81"},"sourceKey":"exit","destinationUnit":{"$ref":"86"},"destinationKey":"enter","guid":"f1b9f1e6-9b5c-4a21-86ec-c3429e8ac144","$type":"Unity.VisualScripting.ControlConnection"},{"sourceUnit":{"$ref":"43"},"sourceKey":"exit","destinationUnit":{"$ref":"38"},"destinationKey":"enter","guid":"117eb59b-4af1-4e3e-a25f-148b931a966d","$type":"Unity.VisualScripting.ControlConnection"},{"sourceUnit":{"$ref":"56"},"sourceKey":"value","destinationUnit":{"$ref":"77"},"destinationKey":"b","guid":"8b246d52-e6ca-402f-9ed2-5b26182c925f","$type":"Unity.VisualScripting.ValueConnection"},{"sourceUnit":{"$ref":"11"},"sourceKey":"product","destinationUnit":{"$ref":"84"},"destinationKey":"b","guid":"87bcc419-716e-439f-91ab-f1aa48bf4e38","$type":"Unity.VisualScripting.ValueConnection"},{"sourceUnit":{"$ref":"23"},"sourceKey":"product","destinationUnit":{"$ref":"38"},"destinationKey":"%translation","guid":"d774a1d5-1476-474c-8f39-d764d61756b2","$type":"Unity.VisualScripting.ValueConnection"},{"sourceUnit":{"$ref":"49"},"sourceKey":"product","destinationUnit":{"$ref":"13"},"destinationKey":"1","guid":"f33b7bd7-a5d8-41ff-a1e6-fa8207526da0","$type":"Unity.VisualScripting.ValueConnection"},{"sourceUnit":{"$ref":"28"},"sourceKey":"value","destinationUnit":{"$ref":"77"},"destinationKey":"a","guid":"ef8de8ba-556f-4de2-8ef9-c0fc06aceeb0","$type":"Unity.VisualScripting.ValueConnection"},{"sourceUnit":{"$ref":"77"},"sourceKey":"product","destinationUnit":{"$ref":"23"},"destinationKey":"b","guid":"15dd8361-3301-4db1-addb-4a121c574ecf","$type":"Unity.VisualScripting.ValueConnection"},{"sourceUnit":{"$ref":"96"},"sourceKey":"value","destinationUnit":{"$ref":"75"},"destinationKey":"a","guid":"c0cdf73f-ef77-4bd6-8b5b-341507c274fa","$type":"Unity.VisualScripting.ValueConnection"},{"sourceUnit":{"$ref":"84"},"sourceKey":"product","destinationUnit":{"$ref":"86"},"destinationKey":"%yAngle","guid":"377e0ef7-3868-44da-9a2e-32ad5806e34c","$type":"Unity.VisualScripting.ValueConnection"},{"sourceUnit":{"$ref":"67"},"sourceKey":"value","destinationUnit":{"$ref":"69"},"destinationKey":"target","guid":"bf302e9a-3709-4e01-8da4-6436b11a3987","$type":"Unity.VisualScripting.ValueConnection"},{"sourceUnit":{"$ref":"43"},"sourceKey":"result","destinationUnit":{"$ref":"49"},"destinationKey":"a","guid":"869ea7ae-fff4-44a1-a421-d80bcd65b822","$type":"Unity.VisualScripting.ValueConnection"},{"sourceUnit":{"$ref":"46"},"sourceKey":"value","destinationUnit":{"$ref":"49"},"destinationKey":"b","guid":"209f5ac0-0a7d-43f1-8dd2-f399f9a4723d","$type":"Unity.VisualScripting.ValueConnection"},{"sourceUnit":{"$ref":"94"},"sourceKey":"product","destinationUnit":{"$ref":"51"},"destinationKey":"a","guid":"aaf39970-19cc-4804-9074-432f2ce3f3b8","$type":"Unity.VisualScripting.ValueConnection"},{"sourceUnit":{"$ref":"75"},"sourceKey":"product","destinationUnit":{"$ref":"94"},"destinationKey":"b","guid":"edba244f-34ff-40e5-a8cf-34aab462fdbc","$type":"Unity.VisualScripting.ValueConnection"},{"sourceUnit":{"$ref":"81"},"sourceKey":"result","destinationUnit":{"$ref":"84"},"destinationKey":"a","guid":"440c2313-5cf5-4c37-bf06-cbbcdf7bbae2","$type":"Unity.VisualScripting.ValueConnection"},{"sourceUnit":{"$ref":"89"},"sourceKey":"value","destinationUnit":{"$ref":"11"},"destinationKey":"a","guid":"bbafdb06-af63-4b2d-8db1-0b9d223875b1","$type":"Unity.VisualScripting.ValueConnection"},{"sourceUnit":{"$ref":"13"},"sourceKey":"sum","destinationUnit":{"$ref":"23"},"destinationKey":"a","guid":"43b12491-a769-4b14-85ee-f8db046c757d","$type":"Unity.VisualScripting.ValueConnection"},{"sourceUnit":{"$ref":"64"},"sourceKey":"result","destinationUnit":{"$ref":"94"},"destinationKey":"a","guid":"1af5214f-abe9-4a99-bba1-e4951e7ebcec","$type":"Unity.VisualScripting.ValueConnection"},{"sourceUnit":{"$ref":"59"},"sourceKey":"result","destinationUnit":{"$ref":"25"},"destinationKey":"target","guid":"cf017f19-5ca9-4431-981a-f7a7bd891639","$type":"Unity.VisualScripting.ValueConnection"},{"sourceUnit":{"$ref":"15"},"sourceKey":"value","destinationUnit":{"$ref":"18"},"destinationKey":"b","guid":"e3d2e6a9-079e-4427-aefa-2bd3758769b6","$type":"Unity.VisualScripting.ValueConnection"},{"sourceUnit":{"$ref":"72"},"sourceKey":"value","destinationUnit":{"$ref":"75"},"destinationKey":"b","guid":"8673f44a-f916-47d6-8cc6-b6ac787620ba","$type":"Unity.VisualScripting.ValueConnection"},{"sourceUnit":{"$ref":"91"},"sourceKey":"value","destinationUnit":{"$ref":"11"},"destinationKey":"b","guid":"b26a51ba-6092-460f-9656-56807e191464","$type":"Unity.VisualScripting.ValueConnection"},{"sourceUnit":{"$ref":"18"},"sourceKey":"product","destinationUnit":{"$ref":"13"},"destinationKey":"0","guid":"d14bf107-a904-499b-a429-7e3b1d077d2c","$type":"Unity.VisualScripting.ValueConnection"},{"sourceUnit":{"$ref":"53"},"sourceKey":"result","destinationUnit":{"$ref":"18"},"destinationKey":"a","guid":"179ce488-ee1c-424f-afe4-4b34b3a0ae63","$type":"Unity.VisualScripting.ValueConnection"},{"sourceUnit":{"$ref":"51"},"sourceKey":"product","destinationUnit":{"$ref":"69"},"destinationKey":"%xAngle","guid":"75d42c62-2176-4cde-8918-59e6d56665e5","$type":"Unity.VisualScripting.ValueConnection"}],"$version":"A"}}'
    _objectReferences: []
